<?xml version="1.0" encoding="UTF-8"?>
<!DOCTYPE svg PUBLIC "-//W3C//DTD SVG 1.1//EN" "http://www.w3.org/Graphics/SVG/1.1/DTD/svg11.dtd">
<!-- Creator: CorelDRAW X7 -->
<svg xmlns="http://www.w3.org/2000/svg" xml:space="preserve" width="378px" height="378px" version="1.1" style="shape-rendering:geometricPrecision; text-rendering:geometricPrecision; image-rendering:optimizeQuality; fill-rule:evenodd; clip-rule:evenodd"
viewBox="0 0 41495 41495"
 xmlns:xlink="http://www.w3.org/1999/xlink">
 <defs>
  <style type="text/css">
   <![CDATA[
    .fil0 {fill:none}
    .fil1 {fill:#373435}
   ]]>
  </style>
 </defs>
 <g id="Слой_x0020_1">
  <metadata id="CorelCorpID_0Corel-Layer"/>
  <rect class="fil0" width="41495" height="41495"/>
  <path class="fil1" d="M20748 16511l15635 -15635c1166,-1168 3071,-1168 4237,0 1167,1166 1167,3070 0,4236l-15635 15635 15635 15636c1167,1166 1167,3070 0,4237 -1166,1167 -3071,1167 -4237,0l-15635 -15636 -15636 15636c-1166,1167 -3070,1167 -4236,0 -1167,-1167 -1167,-3071 0,-4237l15636 -15636 -15636 -15635c-1167,-1166 -1167,-3070 0,-4236 1166,-1168 3070,-1168 4236,0l15636 15635z"/>
 </g>
</svg>
